{"name":"tests different methods","id":"service-test-wiht-rest-assured;tests-different-methods","testSteps":[{"number":1,"description":"Example: {method\u003dGET, request\u003d/api/users?page\u003d2, response\u003d200}","duration":11993,"startTime":"2020-06-09T12:26:33.139-05:00[America/Bogota]","result":"SUCCESS","precondition":false,"level":0,"children":[{"number":2,"description":"When Damian selects the method GET and the request /api/users?page\u003d2 to test","duration":11607,"startTime":"2020-06-09T12:26:33.152-05:00[America/Bogota]","result":"SUCCESS","precondition":false,"level":1,"children":[{"number":3,"description":"Damian list all users","duration":10522,"startTime":"2020-06-09T12:26:34.234-05:00[America/Bogota]","result":"SUCCESS","precondition":false,"level":2,"children":[{"number":4,"description":"Damian executes a GET on the resource /api/users?page\u003d2","duration":10447,"startTime":"2020-06-09T12:26:34.299-05:00[America/Bogota]","result":"SUCCESS","precondition":false,"level":3,"children":[{"number":5,"description":"GET https://reqres.in/api/users?page\u003d2\r","duration":3,"startTime":"2020-06-09T12:26:44.738-05:00[America/Bogota]","result":"SUCCESS","restQuery":{"method":"GET","path":"https://reqres.in/api/users?page\u003d2\r","content":"\r","contentType":"null","requestHeaders":"Accept\u003d*/*\r","requestCookies":"\r","responseHeaders":"Date: Tue, 09 Jun 2020 17:26:45 GMT\r\nContent-Type: application/json; charset\u003dutf-8\r\nTransfer-Encoding: chunked\r\nConnection: keep-alive\r\nSet-Cookie: __cfduid\u003dd17df88f9f95168145b504e5c7cc56dc21591723605; expires\u003dThu, 09-Jul-20 17:26:45 GMT; path\u003d/; domain\u003d.reqres.in; HttpOnly; SameSite\u003dLax; Secure\r\nX-Powered-By: Express\r\nAccess-Control-Allow-Origin: *\r\nEtag: W/\"4dd-IPv5LdOOb6s5S9E3i59wBCJ1k/0\"\r\nVia: 1.1 vegur\r\nCache-Control: max-age\u003d14400\r\nCF-Cache-Status: HIT\r\nAge: 5093\r\ncf-request-id: 033bb7d7c70000b9839a3f3200000001\r\nExpect-CT: max-age\u003d604800, report-uri\u003d\"https://report-uri.cloudflare.com/cdn-cgi/beacon/expect-ct\"\r\nVary: Accept-Encoding\r\nServer: cloudflare\r\nCF-RAY: 5a0c8f393ec6b983-MIA\r\nContent-Encoding: gzip\r","responseCookies":"__cfduid\u003dd17df88f9f95168145b504e5c7cc56dc21591723605;Path\u003d/;Domain\u003d.reqres.in;Secure;HttpOnly;Expires\u003d9/07/20 05:26 PM\r","responseBody":"{\n    \"page\": 2,\n    \"per_page\": 6,\n    \"total\": 12,\n    \"total_pages\": 2,\n    \"data\": [\n        {\n            \"id\": 7,\n            \"email\": \"michael.lawson@reqres.in\",\n            \"first_name\": \"Michael\",\n            \"last_name\": \"Lawson\",\n            \"avatar\": \"https://s3.amazonaws.com/uifaces/faces/twitter/follettkyle/128.jpg\"\n        },\n        {\n            \"id\": 8,\n            \"email\": \"lindsay.ferguson@reqres.in\",\n            \"first_name\": \"Lindsay\",\n            \"last_name\": \"Ferguson\",\n            \"avatar\": \"https://s3.amazonaws.com/uifaces/faces/twitter/araa3185/128.jpg\"\n        },\n        {\n            \"id\": 9,\n            \"email\": \"tobias.funke@reqres.in\",\n            \"first_name\": \"Tobias\",\n            \"last_name\": \"Funke\",\n            \"avatar\": \"https://s3.amazonaws.com/uifaces/faces/twitter/vivekprvr/128.jpg\"\n        },\n        {\n            \"id\": 10,\n            \"email\": \"byron.fields@reqres.in\",\n            \"first_name\": \"Byron\",\n            \"last_name\": \"Fields\",\n            \"avatar\": \"https://s3.amazonaws.com/uifaces/faces/twitter/russoedu/128.jpg\"\n        },\n        {\n            \"id\": 11,\n            \"email\": \"george.edwards@reqres.in\",\n            \"first_name\": \"George\",\n            \"last_name\": \"Edwards\",\n            \"avatar\": \"https://s3.amazonaws.com/uifaces/faces/twitter/mrmoiree/128.jpg\"\n        },\n        {\n            \"id\": 12,\n            \"email\": \"rachel.howell@reqres.in\",\n            \"first_name\": \"Rachel\",\n            \"last_name\": \"Howell\",\n            \"avatar\": \"https://s3.amazonaws.com/uifaces/faces/twitter/hebertialmeida/128.jpg\"\n        }\n    ],\n    \"ad\": {\n        \"company\": \"StatusCode Weekly\",\n        \"url\": \"http://statuscode.org/\",\n        \"text\": \"A weekly newsletter focusing on software development, infrastructure, the server, performance, and the stack end of things.\"\n    }\n}","statusCode":200},"precondition":false,"level":4}]}]}]},{"number":6,"description":"Then he should see the message code 200 response.","duration":368,"startTime":"2020-06-09T12:26:44.761-05:00[America/Bogota]","result":"SUCCESS","precondition":false,"level":1,"children":[{"number":7,"description":"Then The code response is should be (200)","duration":15,"startTime":"2020-06-09T12:26:45.111-05:00[America/Bogota]","result":"SUCCESS","precondition":false,"level":2}]}]},{"number":8,"description":"Example: {method\u003dGET, request\u003d/api/unknown/2, response\u003d200}","duration":362,"startTime":"2020-06-09T12:26:45.148-05:00[America/Bogota]","result":"SUCCESS","precondition":false,"level":0,"children":[{"number":9,"description":"When Damian selects the method GET and the request /api/unknown/2 to test","duration":350,"startTime":"2020-06-09T12:26:45.150-05:00[America/Bogota]","result":"SUCCESS","precondition":false,"level":1,"children":[{"number":10,"description":"Damian list all users","duration":339,"startTime":"2020-06-09T12:26:45.159-05:00[America/Bogota]","result":"SUCCESS","precondition":false,"level":2,"children":[{"number":11,"description":"Damian executes a GET on the resource /api/unknown/2","duration":334,"startTime":"2020-06-09T12:26:45.163-05:00[America/Bogota]","result":"SUCCESS","precondition":false,"level":3,"children":[{"number":12,"description":"GET https://reqres.in/api/unknown/2\r","duration":0,"startTime":"2020-06-09T12:26:45.497-05:00[America/Bogota]","result":"SUCCESS","restQuery":{"method":"GET","path":"https://reqres.in/api/unknown/2\r","content":"\r","contentType":"null","requestHeaders":"Accept\u003d*/*\r","requestCookies":"\r","responseHeaders":"Date: Tue, 09 Jun 2020 17:26:46 GMT\r\nContent-Type: application/json; charset\u003dutf-8\r\nTransfer-Encoding: chunked\r\nConnection: keep-alive\r\nSet-Cookie: __cfduid\u003dd6f168a31492cc55aab72e3bf94735c091591723606; expires\u003dThu, 09-Jul-20 17:26:46 GMT; path\u003d/; domain\u003d.reqres.in; HttpOnly; SameSite\u003dLax; Secure\r\nX-Powered-By: Express\r\nAccess-Control-Allow-Origin: *\r\nEtag: W/\"128-2OIdTk88Wl5IU+miBPIdhOPMcBo\"\r\nVia: 1.1 vegur\r\nCache-Control: max-age\u003d14400\r\nCF-Cache-Status: HIT\r\nAge: 3688\r\ncf-request-id: 033bb7dbcd0000ef02c1a67200000001\r\nExpect-CT: max-age\u003d604800, report-uri\u003d\"https://report-uri.cloudflare.com/cdn-cgi/beacon/expect-ct\"\r\nVary: Accept-Encoding\r\nServer: cloudflare\r\nCF-RAY: 5a0c8f3fafabef02-MIA\r\nContent-Encoding: gzip\r","responseCookies":"__cfduid\u003dd6f168a31492cc55aab72e3bf94735c091591723606;Path\u003d/;Domain\u003d.reqres.in;Secure;HttpOnly;Expires\u003d9/07/20 05:26 PM\r","responseBody":"{\n    \"data\": {\n        \"id\": 2,\n        \"name\": \"fuchsia rose\",\n        \"year\": 2001,\n        \"color\": \"#C74375\",\n        \"pantone_value\": \"17-2031\"\n    },\n    \"ad\": {\n        \"company\": \"StatusCode Weekly\",\n        \"url\": \"http://statuscode.org/\",\n        \"text\": \"A weekly newsletter focusing on software development, infrastructure, the server, performance, and the stack end of things.\"\n    }\n}","statusCode":200},"precondition":false,"level":4}]}]}]},{"number":13,"description":"Then he should see the message code 200 response.","duration":8,"startTime":"2020-06-09T12:26:45.501-05:00[America/Bogota]","result":"SUCCESS","precondition":false,"level":1,"children":[{"number":14,"description":"Then The code response is should be (200)","duration":2,"startTime":"2020-06-09T12:26:45.505-05:00[America/Bogota]","result":"SUCCESS","precondition":false,"level":2}]}]}],"userStory":{"id":"service-test-wiht-rest-assured","storyName":"service test wiht rest assured","path":"src/test/resources/features/services_test.feature","narrative":"  I as user\n  I want to test the services\n  to see the result","type":"feature"},"featureTag":{"name":"Features/service test wiht rest assured","type":"feature","displayName":"Features/service test wiht rest assured"},"title":"tests different methods","tags":[{"name":"service test wiht rest assured","type":"feature","displayName":"service test wiht rest assured"}],"startTime":"2020-06-09T12:26:32.789-05:00[America/Bogota]","duration":12723,"projectKey":"","isManualTestingUpToDate":false,"dataTable":{"headers":["method","request","response"],"rows":[{"values":["GET","/api/users?page\u003d2","200"],"result":"SUCCESS"},{"values":["GET","/api/unknown/2","200"],"result":"SUCCESS"}],"predefinedRows":true,"scenarioOutline":"When Damian selects the method \u003cmethod\u003e and the request \u003crequest\u003e to test\n\rThen he should see the message code \u003cresponse\u003e response.\n\r","dataSetDescriptors":[{"startRow":0,"rowCount":0,"name":""}]},"manual":false,"testSource":"Cucumber","actors":[{"name":"Damian","can":["call an API at https://reqres.in"]}],"result":"SUCCESS","scenarioOutline":"When Damian selects the method \u003cmethod\u003e and the request \u003crequest\u003e to test\r\nThen he should see the message code \u003cresponse\u003e response."}