{"name":"tests different methods GET","id":"service-test-wiht-rest-assured;tests-different-methods-get","testSteps":[{"number":1,"description":"Example: {method\u003dGET, request\u003d/api/users?page\u003d2, response\u003d200, firstName\u003dLindsay}","duration":8615,"startTime":"2020-06-11T16:35:59.104-05:00[America/Bogota]","result":"SUCCESS","precondition":false,"level":0,"children":[{"number":2,"description":"When Damian selects the method GET and the request /api/users?page\u003d2 to test","duration":7753,"startTime":"2020-06-11T16:35:59.207-05:00[America/Bogota]","result":"SUCCESS","precondition":false,"level":1,"children":[{"number":3,"description":"Damian list all users","duration":7308,"startTime":"2020-06-11T16:35:59.649-05:00[America/Bogota]","result":"SUCCESS","precondition":false,"level":2,"children":[{"number":4,"description":"Damian executes a GET on the resource /api/users?page\u003d2","duration":7237,"startTime":"2020-06-11T16:35:59.709-05:00[America/Bogota]","result":"SUCCESS","precondition":false,"level":3,"children":[{"number":5,"description":"GET https://reqres.in/api/users?page\u003d2\r","duration":0,"startTime":"2020-06-11T16:36:06.941-05:00[America/Bogota]","result":"SUCCESS","restQuery":{"method":"GET","path":"https://reqres.in/api/users?page\u003d2\r","content":"\r","contentType":"null","requestHeaders":"Accept\u003d*/*\r","requestCookies":"\r","responseHeaders":"Date: Thu, 11 Jun 2020 21:36:07 GMT\r\nContent-Type: application/json; charset\u003dutf-8\r\nTransfer-Encoding: chunked\r\nConnection: keep-alive\r\nSet-Cookie: __cfduid\u003dd0f22ab814080fdcec03b97f1e70a2e311591911367; expires\u003dSat, 11-Jul-20 21:36:07 GMT; path\u003d/; domain\u003d.reqres.in; HttpOnly; SameSite\u003dLax; Secure\r\nX-Powered-By: Express\r\nAccess-Control-Allow-Origin: *\r\nEtag: W/\"4dd-IPv5LdOOb6s5S9E3i59wBCJ1k/0\"\r\nVia: 1.1 vegur\r\nCache-Control: max-age\u003d14400\r\nCF-Cache-Status: HIT\r\nAge: 2950\r\ncf-request-id: 0346e8db770000042859100200000001\r\nExpect-CT: max-age\u003d604800, report-uri\u003d\"https://report-uri.cloudflare.com/cdn-cgi/beacon/expect-ct\"\r\nVary: Accept-Encoding\r\nServer: cloudflare\r\nCF-RAY: 5a1e773f2c110428-MIA\r\nContent-Encoding: gzip\r","responseCookies":"__cfduid\u003dd0f22ab814080fdcec03b97f1e70a2e311591911367;Path\u003d/;Domain\u003d.reqres.in;Secure;HttpOnly;Expires\u003d11/07/20 09:36 PM\r","responseBody":"{\n    \"page\": 2,\n    \"per_page\": 6,\n    \"total\": 12,\n    \"total_pages\": 2,\n    \"data\": [\n        {\n            \"id\": 7,\n            \"email\": \"michael.lawson@reqres.in\",\n            \"first_name\": \"Michael\",\n            \"last_name\": \"Lawson\",\n            \"avatar\": \"https://s3.amazonaws.com/uifaces/faces/twitter/follettkyle/128.jpg\"\n        },\n        {\n            \"id\": 8,\n            \"email\": \"lindsay.ferguson@reqres.in\",\n            \"first_name\": \"Lindsay\",\n            \"last_name\": \"Ferguson\",\n            \"avatar\": \"https://s3.amazonaws.com/uifaces/faces/twitter/araa3185/128.jpg\"\n        },\n        {\n            \"id\": 9,\n            \"email\": \"tobias.funke@reqres.in\",\n            \"first_name\": \"Tobias\",\n            \"last_name\": \"Funke\",\n            \"avatar\": \"https://s3.amazonaws.com/uifaces/faces/twitter/vivekprvr/128.jpg\"\n        },\n        {\n            \"id\": 10,\n            \"email\": \"byron.fields@reqres.in\",\n            \"first_name\": \"Byron\",\n            \"last_name\": \"Fields\",\n            \"avatar\": \"https://s3.amazonaws.com/uifaces/faces/twitter/russoedu/128.jpg\"\n        },\n        {\n            \"id\": 11,\n            \"email\": \"george.edwards@reqres.in\",\n            \"first_name\": \"George\",\n            \"last_name\": \"Edwards\",\n            \"avatar\": \"https://s3.amazonaws.com/uifaces/faces/twitter/mrmoiree/128.jpg\"\n        },\n        {\n            \"id\": 12,\n            \"email\": \"rachel.howell@reqres.in\",\n            \"first_name\": \"Rachel\",\n            \"last_name\": \"Howell\",\n            \"avatar\": \"https://s3.amazonaws.com/uifaces/faces/twitter/hebertialmeida/128.jpg\"\n        }\n    ],\n    \"ad\": {\n        \"company\": \"StatusCode Weekly\",\n        \"url\": \"http://statuscode.org/\",\n        \"text\": \"A weekly newsletter focusing on software development, infrastructure, the server, performance, and the stack end of things.\"\n    }\n}","statusCode":200},"precondition":false,"level":4}]}]}]},{"number":6,"description":"Then he should see the message code 200 response Lindsay.","duration":755,"startTime":"2020-06-11T16:36:06.962-05:00[America/Bogota]","result":"SUCCESS","precondition":false,"level":1,"children":[{"number":7,"description":"Then The code response is should be (200)","duration":592,"startTime":"2020-06-11T16:36:07.121-05:00[America/Bogota]","result":"SUCCESS","precondition":false,"level":2}]}]}],"userStory":{"id":"service-test-wiht-rest-assured","storyName":"service test wiht rest assured","path":"src/test/resources/features/services_test.feature","narrative":"  I as user\n  I want to test the services\n  to see the result","type":"feature"},"featureTag":{"name":"Features/service test wiht rest assured","type":"feature","displayName":"Features/service test wiht rest assured"},"title":"tests different methods GET","tags":[{"name":"service test wiht rest assured","type":"feature","displayName":"service test wiht rest assured"},{"name":"GET","type":"tag","displayName":"GET"}],"startTime":"2020-06-11T16:35:58.960-05:00[America/Bogota]","duration":8762,"projectKey":"","isManualTestingUpToDate":false,"dataTable":{"headers":["method","request","response","firstName"],"rows":[{"values":["GET","/api/users?page\u003d2","200","Lindsay"],"result":"SUCCESS"}],"predefinedRows":true,"scenarioOutline":"When Damian selects the method \u003cmethod\u003e and the request \u003crequest\u003e to test\n\rThen he should see the message code \u003cresponse\u003e response \u003cfirstName\u003e.\n\r","dataSetDescriptors":[{"startRow":0,"rowCount":0,"name":""}]},"manual":false,"testSource":"Cucumber","actors":[{"name":"Damian","can":["call an API at https://reqres.in"]}],"result":"SUCCESS","scenarioOutline":"When Damian selects the method \u003cmethod\u003e and the request \u003crequest\u003e to test\r\nThen he should see the message code \u003cresponse\u003e response \u003cfirstName\u003e."}